{
    "KPlugin": {
        "Authors": [
            {
                "Email": "aacid@kde.org",
                "Name": "Albert Astals Cid",
                "Name[az]": "Albert Astals Cid",
                "Name[ca@valencia]": "Albert Astals Cid",
                "Name[ca]": "Albert Astals Cid",
                "Name[cs]": "Albert Astals Cid",
                "Name[da]": "Albert Astals Cid",
                "Name[de]": "Albert Astals Cid",
                "Name[el]": "Albert Astals Cid",
                "Name[en_GB]": "Albert Astals Cid",
                "Name[es]": "Albert Astals Cid",
                "Name[et]": "Albert Astals Cid",
                "Name[eu]": "Albert Astals Cid",
                "Name[fi]": "Albert Astals Cid",
                "Name[fr]": "Albert Astals Cid",
                "Name[gl]": "Albert Astals Cid",
                "Name[ia]": "Albert  Astals Cid",
                "Name[it]": "Albert Astals Cid",
                "Name[ko]": "Albert Astals Cid",
                "Name[lt]": "Albert Astals Cid",
                "Name[nl]": "Albert Astals Cid",
                "Name[nn]": "Albert Astals Cid",
                "Name[pa]": "ਅਲਬਰਟ ਅਸਟਾਲਸ ਸਿਡ",
                "Name[pl]": "Albert Astals Cid",
                "Name[pt]": "Albert Astals Cid",
                "Name[pt_BR]": "Albert Astals Cid",
                "Name[ru]": "Albert Astals Cid",
                "Name[sk]": "Albert Astals Cid",
                "Name[sl]": "Albert Astals Cid",
                "Name[sr@ijekavian]": "Алберт Асталс Сид",
                "Name[sr@ijekavianlatin]": "Albert Astals Sid",
                "Name[sr@latin]": "Albert Astals Sid",
                "Name[sr]": "Алберт Асталс Сид",
                "Name[sv]": "Albert Astals Cid",
                "Name[tr]": "Albert Astals Cid",
                "Name[uk]": "Albert Astals Cid",
                "Name[x-test]": "xxAlbert Astals Cidxx",
                "Name[zh_CN]": "Albert Astals Cid",
                "Name[zh_TW]": "Albert Astals Cid"
            }
        ],
        "Copyright": "© 2007-2008 Albert Astals Cid",
        "Copyright[az]": "© 2007-2008 Albert Astals Cid",
        "Copyright[ca@valencia]": "© 2007-2008 Albert Astals Cid",
        "Copyright[ca]": "© 2007-2008 Albert Astals Cid",
        "Copyright[cs]": "© 2007-2008 Albert Astals Cid",
        "Copyright[da]": "© 2007-2008 Albert Astals Cid",
        "Copyright[de]": "© 2007-2008 Albert Astals Cid",
        "Copyright[el]": "© 2007-2008 Albert Astals Cid",
        "Copyright[en_GB]": "© 2007-2008 Albert Astals Cid",
        "Copyright[es]": "© 2007-2008 Albert Astals Cid",
        "Copyright[et]": "© 2007-2008: Albert Astals Cid",
        "Copyright[eu]": "© 2007-2008 Albert Astals Cid",
        "Copyright[fi]": "© 2007–2008 Albert Astals Cid",
        "Copyright[fr]": "© 2007-2008 Albert Astals Cid",
        "Copyright[gl]": "© 2007-2008 Albert Astals Cid",
        "Copyright[ia]": "Albert  Astals Cid",
        "Copyright[it]": "© 2007-2008 Albert Astals Cid",
        "Copyright[ko]": "© 2007-2008 Albert Astals Cid",
        "Copyright[lt]": "© 2007-2008 Albert Astals Cid",
        "Copyright[nl]": "© 2007-2008 Albert Astals Cid",
        "Copyright[nn]": "© 2007–2008 Albert Astals Cid",
        "Copyright[pa]": "© 2007-2008 Albert Astals Cid",
        "Copyright[pl]": "© 2007-2008 Albert Astals Cid",
        "Copyright[pt]": "© 2007-2008 Albert Astals Cid",
        "Copyright[pt_BR]": "© 2007-2008 Albert Astals Cid",
        "Copyright[ru]": "© Albert Astals Cid, 2007-2008",
        "Copyright[sk]": "© 2007-2008 Albert Astals Cid",
        "Copyright[sl]": "© 2007-2008 Albert Astals Cid",
        "Copyright[sr@ijekavian]": "© 2007–2008, Алберт Асталс Сид",
        "Copyright[sr@ijekavianlatin]": "© 2007–2008, Albert Astals Sid",
        "Copyright[sr@latin]": "© 2007–2008, Albert Astals Sid",
        "Copyright[sr]": "© 2007–2008, Алберт Асталс Сид",
        "Copyright[sv]": "© 2007-2008 Albert Astals Cid",
        "Copyright[tr]": "© 2007-2008 Albert Astals Cid",
        "Copyright[uk]": "© Albert Astals Cid, 2007–2008",
        "Copyright[x-test]": "xx© 2007-2008 Albert Astals Cidxx",
        "Copyright[zh_CN]": "© 2007-2008 Albert Astals Cid",
        "Copyright[zh_TW]": "© 2007-2008 Albert Astals Cid",
        "Description": "A PostScript file renderer based on the Spectre library",
        "Description[az]": "Spectre library'ə əsasında PostScript fayl tərtibatçısı",
        "Description[ca@valencia]": "Un renderitzador per a fitxers PostScript basat en la biblioteca Spectre",
        "Description[ca]": "Un renderitzador per a fitxers PostScript basat en la biblioteca Spectre",
        "Description[cs]": "Vykreslovač souborů PostScript založený na knihovně Spectre.",
        "Description[da]": "En gengiver til PostScript-filer baseret på Spectre-biblioteket",
        "Description[de]": "Ein Renderer für PostScript-Dateien entwickelt aus der Spectre-Bibliothek",
        "Description[el]": "Πρόγραμμα αποτύπωσης αρχείων PostScript με βάση τη βιβλιοθήκη Spectre",
        "Description[en_GB]": "A PostScript file renderer based on the Spectre library",
        "Description[es]": "Un visor de archivos PostScript basado en la biblioteca Spectre",
        "Description[et]": "PostScript-faili renderdaja Spectre teegi alusel",
        "Description[eu]": "PostScript fitxategien errendatzaile bat Spectre liburutegian oinarritua",
        "Description[fi]": "Spectre-kirjastoon pohjautuva PostScript-tiedostohahmonnin",
        "Description[fr]": "Système de rendu pour les fichiers « PostScript » utilisant la bibliothèque Spectre",
        "Description[gl]": "Un renderizador de ficheiros PostScript baseado na biblioteca Spectre.",
        "Description[ia]": "Un renditor de file Postscript basate sur bibliotheca Spectre",
        "Description[it]": "Un visualizzatore di file PostScript basato sulla libreria Spectre",
        "Description[ko]": "Spectre 라이브러리를 사용하는 포스트스크립트 파일 렌더러",
        "Description[lt]": "PostScript failų atvaizdavimas pagrįstas Spectre biblioteka",
        "Description[nl]": "Een renderer van PostScript bestanden gebaseerd op de bibliotheek Spectre",
        "Description[nn]": "Ein gjengjevar for PostScript-filer, basert på Spectre-biblioteket",
        "Description[pl]": "Wyświetlanie plików PostScript oparte o bibliotekę Spectre",
        "Description[pt]": "Um visualzador de ficheiros PostScript com base na biblioteca Spectre",
        "Description[pt_BR]": "Um interpretador de arquivos PostScript com base na biblioteca Spectre",
        "Description[ru]": "Модуль поддержки формата PostScript на основе библиотеки Spectre",
        "Description[sk]": "Renderovač PostScript súborov založený na knižnici Spectre",
        "Description[sl]": "Izrisovalnik datotek PostScript, ki temelji na knjižnici Spectre",
        "Description[sr@ijekavian]": "Рендерер постскрипт фајлова на основу библиотеке Спектер",
        "Description[sr@ijekavianlatin]": "Renderer PostScript fajlova na osnovu biblioteke Spectre",
        "Description[sr@latin]": "Renderer PostScript fajlova na osnovu biblioteke Spectre",
        "Description[sr]": "Рендерер постскрипт фајлова на основу библиотеке Спектер",
        "Description[sv]": "Ett återgivningsprogram för Postscript-filer baserat på Spectre-biblioteket",
        "Description[tr]": "Spectre kitaplığına dayalı bir PostScript dosya oluşturucu",
        "Description[uk]": "Обробник файлів PostScript на основі бібліотеки Spectre",
        "Description[x-test]": "xxA PostScript file renderer based on the Spectre libraryxx",
        "Description[zh_CN]": "基于 Spectre 库的 PostScript 文件渲染器",
        "Description[zh_TW]": "基於 Spectre 函式庫的 PostScript 檔成像器",
        "Id": "okular_ghostview",
        "License": "GPL",
        "MimeTypes": [
            "application/postscript",
            "image/x-eps"
        ],
        "Name": "PS Backend",
        "Name[az]": "PS modulu",
        "Name[ca@valencia]": "Dorsal PS",
        "Name[ca]": "Dorsal PS",
        "Name[cs]": "Podpůrná vrstva PS",
        "Name[da]": "PS-backend",
        "Name[de]": "PS-Anzeigemodul",
        "Name[el]": "Σύστημα υποστήριξης PS",
        "Name[en_GB]": "PS Backend",
        "Name[es]": "Motor para PS",
        "Name[et]": "PS-i taustaprogramm",
        "Name[eu]": "PS-ren bizkarraldekoa",
        "Name[fi]": "PS-taustaosa",
        "Name[fr]": "Moteur PS",
        "Name[gl]": "Infraestrutura para PS",
        "Name[ia]": "Retro-Administration de PS",
        "Name[it]": "Backend PS",
        "Name[ko]": "PS 백엔드",
        "Name[lt]": "PS programinė sąsaja",
        "Name[nl]": "PS-backend",
        "Name[nn]": "PS-motor",
        "Name[pa]": "PS ਬੈਕਐਂਡ",
        "Name[pl]": "Obsługa PS",
        "Name[pt]": "Infra-Estrutura de PS",
        "Name[pt_BR]": "Infraestrutura PS",
        "Name[ru]": "Модуль поддержки формата PS",
        "Name[sk]": "PS Backend",
        "Name[sl]": "Zaledje za PS",
        "Name[sr@ijekavian]": "Позадина за постскрипт",
        "Name[sr@ijekavianlatin]": "Pozadina za PostScript",
        "Name[sr@latin]": "Pozadina za PostScript",
        "Name[sr]": "Позадина за постскрипт",
        "Name[sv]": "PS-gränssnitt",
        "Name[tr]": "PS Arka Ucu",
        "Name[uk]": "Модуль PS",
        "Name[x-test]": "xxPS Backendxx",
        "Name[zh_CN]": "PS 后端",
        "Name[zh_TW]": "PS 後端介面",
        "Version": "0.1.7"
    },
    "X-KDE-Priority": 2,
    "X-KDE-okularAPIVersion": 1,
    "X-KDE-okularHasInternalSettings": true
}
